{
	"auths": {
		"registry.gitlab.com": {
			"auth": "bHVjaWFubWluY2VhOmdscGF0LTZ4a3Q0TFJrLTRIbjlGbjlFMkFF"
		}
	},
	"HttpHeaders": {
		"User-Agent": "Docker-Client/19.03.13 (linux)",
		"X-PortainerAgent-ManagerOperation": "1",
		"X-PortainerAgent-PublicKey": "3059301306072a8648ce3d020106082a8648ce3d03010703420004c8560feee411970fba4450b1eb1f96d5e46fcc7d3d820cd6ed575e8f422677091400d2120b45a3b2dfe576b43783c486b462342cd7a616832aac806493733a4e",
		"X-PortainerAgent-Signature": "EQ/oHtA1XrIGV8lRwOrW6iWb8H7ARqkrHYtwkBxi9C2gs3sHH7E0HEQGDnHsDCOuRbf1XF48CYjmLrer+oKzcw"
	}
}